steps\LoginSteps.class
steps\CheckoutSteps.class
pages\ProductPage.class
TestSuite.class
pages\CommonPage.class
pages\LoginPage.class
steps\CommonSteps.class
steps\ProductSteps.class
webdriver\Utils.class
pages\CheckoutPage.class
